{
  "info": {
    "_postman_id": "c58d0dd9-7922-4fa8-951b-c5366d6dff09",
    "name": "SpeedTest_UAT",
    "schema": "https://schema.getpostman.com/json/collection/v2.0.0/collection.json"
  },
  "item": [
    {
      "name": "V3_ServersWuthoutPsk",
      "event": [
        {
          "listen": "test",
          "script": {
            "id": "c74b468c-d7e1-4048-9eef-d0d5fccdc6dc",
            "exec": [
              "pm.test(\"Status code is 200\", function () {\r",
              "    pm.response.to.have.status(200);\r",
              "});\r",
              "\r",
              "   var jsonData = pm.response.json();\r",
              "   pm.expect(jsonData.header.code).to.eql(1);\r",
              "     if (jsonData.header.message === 'Success'){\r",
              "    pm.expect(jsonData.header.message).to.eql(\"Success\")\r",
              "     }\r",
              "     else if (jsonData.header.message === 'success')\r",
              "     {\r",
              "    pm.expect(jsonData.header.message).to.eql(\"success\")\r",
              "    }\r",
              ""
            ],
            "type": "text/javascript"
          }
        },
        {
          "listen": "prerequest",
          "script": {
            "id": "22ded916-3691-4a5a-8bf1-30648aff6511",
            "exec": [
              "pm.globals.set(\"jsonBody\",JSON.stringify(pm.iterationData.toObject()));"
            ],
            "type": "text/javascript"
          }
        }
      ],
      "_postman_id": "5149b63f-3810-4cf5-889c-6bd23323daba",
      "protocolProfileBehavior": {
        "disableBodyPruning": true
      },
      "request": {
        "method": "POST",
        "header": [
          {
            "key": "Content-Type",
            "value": "application/json",
            "type": "text"
          },
          {
            "key": "Accept",
            "value": "application/json",
            "type": "text"
          },
          {
            "key": "X-Psk",
            "value": "UndDda1qtb44DyY2mu1S",
            "type": "text"
          },
          {
            "key": "X-AccountId",
            "value": "1",
            "type": "text",
            "disabled": true
          }
        ],
        "body": {
          "mode": "raw",
          "raw": "{{jsonBody}}",
          "options": {
            "raw": {
              "language": "json"
            }
          }
        },
        "url": "{{url}}/speedtest/v3/serversWithoutPsk"
      },
      "response": []
    }
  ],
  "variable": [
    {
      "id": "afedf773-963e-4a04-8684-d2c919d28bd6",
      "key": "PublicKey",
      "value": "",
      "type": "string"
    }
  ]
}